31,23,38,29
29,19,37,25
32,22,34,23
35,17,32,21
29,13,38,26
29,26,39,17
23,13,23,46
39,19,30,22
47,20,32,26
41,23,30,22
53,37,31,16
23,13,22,31
43,26,38,31
61,26,40,27
57,19,33,24
67,26,35,32
51,21,30,22
95,38,82,23
67,29,32,49
43,19,32,31
49,21,31,23
67,21,23,36
80,19,28,37
49,35,38,17
51,44,9,37
23,37,39,37
47,47,32,27
125,44,68,20
98,25,38,18
121,39,61,33
61,25,25,15
87,11,20,45
63,11,34,26
71,21,61,26
105,7,33,40
63,26,69,18
